IS415-GAA-JS - Take-home Exercise 2: Application of Spatial and Spatio-temporal Analysis Methods to Discover the Distribution of Dengue Fever in Tainan City, Taiwan
…
Now, we will perform HCSA using the calculated spatial weights

HCSA <- wm_idw %>% 
  mutate(local_Gi = local_gstar_perm(
    total_cases, nb, wt, nsim = 99),
         .before = 1) %>%
  unnest(local_Gi)
HCSA

Simple feature collection with 258 features and 14 fields
Geometry type: POLYGON
Dimension:     XY
Bounding box:  xmin: 120.0627 ymin: 22.89401 xmax: 120.2925 ymax: 23.09144
Geodetic CRS:  TWD97
# A tibble: 258 × 15
   gi_star cluster    e_gi    var_gi std_dev p_value p_sim p_folded_sim skewness
     <dbl> <fct>     <dbl>     <dbl>   <dbl>   <dbl> <dbl>        <dbl>    <dbl>
 1 -1.59   Low     0.00349   1.29e-6 -1.46    0.143   0.18         0.09   0.471 
 2  0.0390 High    0.00408   1.87e-6 -0.0961  0.923   0.92         0.46   0.349 
 3 -1.63   Low     0.00333   1.69e-6 -1.31    0.190   0.14         0.07   1.30  
 4 -1.23   Low     0.00332   1.75e-6 -0.871   0.383   0.36         0.18   0.202 
 5 -1.90   Low     0.00342   1.40e-6 -1.68    0.0920  0.06         0.03   0.512 
 6 -2.00   Low     0.00344   1.40e-6 -1.82    0.0692  0.06         0.03  -0.0488
 7 -0.569  Low     0.00344   1.81e-6 -0.264   0.792   0.88         0.44   0.666 
 8 -1.11   Low     0.00384   1.54e-6 -1.06    0.288   0.28         0.14   0.553 
 9 -1.92   Low     0.00332   1.63e-6 -1.50    0.134   0.1          0.05   0.473 
10 -2.37   Low     0.00320   1.82e-6 -2.13    0.0335  0.04         0.02   0.229 
# ℹ 248 more rows
# ℹ 6 more variables: kurtosis <dbl>, nb <nb>, wts <list>, TOWNVILL <chr>,
#   total_cases <dbl>, geometry <POLYGON [°]>
…
