IS415-GAA-JS - Take-home Exercise 3: Spatio-temporal Analysis Methods to Discover the Distribution Eathquake Events in West Java, Indonesia
…
Some subdistricts may share the same name but belong to different districts. To ensure uniqueness in our analysis, we concatenate both the subdistrict and district names together to create a distinct identifier.

west_java$subdistrict <- paste(west_java$ADM3_EN, west_java$ADM2_EN, sep = "_")

After obtaining the subdistrict polygons, we use the st_intersection() function to overlay these polygons onto the earthquake points. This process allows us to associate each earthquake point with the corresponding subdistrict polygon, thereby adding the subdistrict information to the earthquake data.

java_earthq <- st_intersection(indoEarthq_sf, west_java)
java_earthq

Simple feature collection with 1384 features and 28 fields
Geometry type: POINT
Dimension:     XY
Bounding box:  xmin: 1522045 ymin: 614269.8 xmax: 1792451 ymax: 816381.6
Projected CRS: DGN95 / Indonesia TM-3 zone 46.2
# A tibble: 1,384 × 29
   tgl        ot       depth   mag remark      strike1  dip1 rake1 strike2  dip2
 * <date>     <time>   <dbl> <dbl> <chr>         <dbl> <dbl> <dbl>   <dbl> <dbl>
 1 2015-03-13 17:23:27    15   2.9 Java - Ind…      NA    NA    NA      NA    NA
 2 2016-01-11 16:58:36    18   2.9 Java - Ind…      NA    NA    NA      NA    NA
 3 2016-11-30 08:00:24    60   3.2 Java - Ind…      NA    NA    NA      NA    NA
 4 2017-08-09 04:57:31   111   3.6 Java - Ind…      NA    NA    NA      NA    NA
 5 2018-01-03 03:49:07   110   3.3 Java - Ind…      NA    NA    NA      NA    NA
 6 2018-01-26 12:40:02    96   3   Java - Ind…      NA    NA    NA      NA    NA
 7 2020-03-22 20:27:05    91   3.5 Java - Ind…      NA    NA    NA      NA    NA
 8 2022-09-03 02:29:58   109   2.5 Java - Ind…      NA    NA    NA      NA    NA
 9 2023-01-11 05:20:19    16   2.5 Java - Ind…      NA    NA    NA      NA    NA
10 2015-03-28 10:25:24    10   3.3 Java - Ind…      NA    NA    NA      NA    NA
# ℹ 1,374 more rows
# ℹ 19 more variables: rake2 <dbl>, Shape_Leng <dbl>, Shape_Area <dbl>,
#   ADM3_EN <chr>, ADM3_PCODE <chr>, ADM3_REF <chr>, ADM3ALT1EN <chr>,
#   ADM3ALT2EN <chr>, ADM2_EN <chr>, ADM2_PCODE <chr>, ADM1_EN <chr>,
#   ADM1_PCODE <chr>, ADM0_EN <chr>, ADM0_PCODE <chr>, date <date>,
#   validOn <date>, validTo <date>, subdistrict <chr>, geometry <POINT [m]>
…
