IS415-GAA-JS - Take-home Exercise 3: Application of Spatial and Spatio-temporal Analysis Methods to Discover the Distribution of Dengue Fever in Tainan City, Taiwan
…
java_earthq <- st_intersection(indoEarthq_filter, west_java)
java_earthq

Simple feature collection with 813 features and 27 fields
Geometry type: POINT
Dimension:     XY
Bounding box:  xmin: 1522045 ymin: 619505.7 xmax: 1792451 ymax: 798303.7
Projected CRS: DGN95 / Indonesia TM-3 zone 46.2
# A tibble: 813 × 28
   tgl        ot       depth   mag remark      strike1  dip1 rake1 strike2  dip2
 * <date>     <time>   <dbl> <dbl> <chr>         <dbl> <dbl> <dbl>   <dbl> <dbl>
 1 2020-03-22 20:27:05    91   3.5 Java - Ind…      NA    NA    NA      NA    NA
 2 2022-09-03 02:29:58   109   2.5 Java - Ind…      NA    NA    NA      NA    NA
 3 2023-01-11 05:20:19    16   2.5 Java - Ind…      NA    NA    NA      NA    NA
 4 2022-03-26 17:55:44    23   2.3 Java - Ind…      NA    NA    NA      NA    NA
 5 2021-06-07 00:18:16   142   3   Java - Ind…      NA    NA    NA      NA    NA
 6 2020-02-05 02:10:44    10   1.6 Java - Ind…      NA    NA    NA      NA    NA
 7 2020-09-21 21:11:48    23   2.3 Java - Ind…      NA    NA    NA      NA    NA
 8 2021-03-19 00:06:50    10   3.4 Java - Ind…      NA    NA    NA      NA    NA
 9 2022-11-26 14:03:09    12   1.7 Java - Ind…      NA    NA    NA      NA    NA
10 2019-05-04 18:59:32    40   2.6 Java - Ind…      NA    NA    NA      NA    NA
# ℹ 803 more rows
# ℹ 18 more variables: rake2 <dbl>, Shape_Leng <dbl>, Shape_Area <dbl>,
#   ADM3_EN <chr>, ADM3_PCODE <chr>, ADM3_REF <chr>, ADM3ALT1EN <chr>,
#   ADM3ALT2EN <chr>, ADM2_EN <chr>, ADM2_PCODE <chr>, ADM1_EN <chr>,
#   ADM1_PCODE <chr>, ADM0_EN <chr>, ADM0_PCODE <chr>, date <date>,
#   validOn <date>, validTo <date>, geometry <POINT [m]>
…
